[
    "moiseev13evaluation",
    "senyukova11diagnostics",
    "kononov13opredelenie",
    "karpukhin17constructing",
    "kukleva17abandoned",
    "boreskov12parallelnye",
    "zvezdakova20bsqrate"
]